// https://api.themoviedb.org/3/discover/movie?api_key=330f085e0745d5b685811654fe129dc3&certification_country=US&certification=R&sort_by=vote_average.desc
{
  "page": 1,
  "total_results": 10000,
  "total_pages": 500,
  "results": [
    {
      "popularity": 1.75,
      "vote_count": 1,
      "video": false,
      "poster_path": "/aOA3qjsNHyL0FH77P8MUuN96Ym5.jpg",
      "id": 764876,
      "adult": false,
      "backdrop_path": null,
      "original_language": "en",
      "original_title": "Fear Trumps All",
      "genre_ids": [
        27,
        35,
        28
      ],
      "title": "Fear Trumps All",
      "vote_average": 10,
      "overview": "Two years after the death of Mayor Phil D. Burn, The Donald returns to wreak havoc on the city of Clintown.",
      "release_date": "2020-11-03"
    },
    {
      "popularity": 1.243,
      "vote_count": 1,
      "video": false,
      "poster_path": "/aK5Ehy1T32gTr0BMBMRN31K9Uu9.jpg",
      "id": 753934,
      "adult": false,
      "backdrop_path": null,
      "original_language": "en",
      "original_title": "DurianZilla: The Movie",
      "genre_ids": [
        28,
        12,
        35
      ],
      "title": "DurianZilla: The Movie",
      "vote_average": 10,
      "overview": "DurianZilla, the man behind the Knuckles meme compilations, is forced to find Knuckles the Echidna or else he and his YouTube channel will face death.",
      "release_date": "2020-10-16"
    },
    {
      "popularity": 1.4,
      "vote_count": 1,
      "video": false,
      "poster_path": "/pqeLPU5y5poDN6Plhju6WIzFhRO.jpg",
      "id": 727773,
      "adult": false,
      "backdrop_path": "/tOZk74vUVbVk1YOjiusCqsptrn8.jpg",
      "original_language": "en",
      "original_title": "NEUROSI5: Momento",
      "genre_ids": [
        16,
        878,
        53
      ],
      "title": "NEUROSI5: Momento",
      "vote_average": 10,
      "overview": "“Momento” is a dark cyberpunk animated shortfilm about the concept of reality and existence within a virtual mind. The shortfilm is set in the same universe of NEUROSI5.",
      "release_date": "2020-06-05"
    },
    {
      "popularity": 1.192,
      "vote_count": 1,
      "video": false,
      "poster_path": null,
      "id": 723215,
      "adult": false,
      "backdrop_path": null,
      "original_language": "en",
      "original_title": "The Serenade of Boyle and Neville",
      "genre_ids": [
        37
      ],
      "title": "The Serenade of Boyle and Neville",
      "vote_average": 10,
      "overview": "In a desolate village where few live and aren't living well, two dim yet eccentric outlaws; Boyle and Neville seek refuge from a ruthless bailiff who ravages the countryside in search of them along with his trusty confidant; a sword. The eponymous characters interact with the obscure and weary townsfolk, down trodden by crop failure. Within these interactions sprout outlandish dialogue and actions of sinful intentions as time frays and the glimmer of the blade gets brighter as The Bailiff draws nearer.",
      "release_date": "2020-01-23"
    },
    {
      "popularity": 3.695,
      "id": 718485,
      "video": false,
      "vote_count": 1,
      "vote_average": 10,
      "title": "The Question",
      "release_date": "2020-06-23",
      "original_language": "en",
      "original_title": "The Question",
      "genre_ids": [
        37,
        53
      ],
      "backdrop_path": null,
      "adult": false,
      "overview": "Two men drive into the desert. A question is asked and the answer has a violent outcome",
      "poster_path": "/9ea3sJoUMXHxR3fNgy7mOiTPqEy.jpg"
    },
    {
      "popularity": 1.4,
      "vote_count": 1,
      "video": false,
      "poster_path": "/q8gth8lVHoqix8TMUeG5siUZTgW.jpg",
      "id": 702314,
      "adult": false,
      "backdrop_path": "/p9rEBcux6tFbIbJGmnNHTtVLISw.jpg",
      "original_language": "en",
      "original_title": "Miss Saigon Manila",
      "genre_ids": [
        18,
        10402,
        10752
      ],
      "title": "Miss Saigon Manila",
      "vote_average": 10,
      "overview": "This performance of Boublil and Schönberg's award-winning musical Miss Saigon — staged in Manila at the Cultural Center of the Philippines in 2000 — tells the epic and tragic tale of a young Vietnamese bar girl, Kim, who falls in love with Chris, an American GI, as their lives are torn apart by the fall of Saigon.",
      "release_date": "2000-01-01"
    },
    {
      "popularity": 3.15,
      "vote_count": 1,
      "video": false,
      "poster_path": "/ttBZaRVh3WTktHiyIPpm0y7jQPY.jpg",
      "id": 693646,
      "adult": false,
      "backdrop_path": null,
      "original_language": "en",
      "original_title": "Aaron Kleiber: Grown @%$ Dad",
      "genre_ids": [
        35
      ],
      "title": "Aaron Kleiber: Grown @%$ Dad",
      "vote_average": 10,
      "overview": "Aaron Kleiber delivers jabs of romanticized parental myths with uppercuts of straight-up dad knowledge. From sun visors and dad nuggs to his no-holds barred take on annoying children's television and Santa, Aaron's truths resonate with parents and non-parents alike. He might not know all the answers, but what he does understand is delivered through his special brand of comedic storytelling.",
      "release_date": "2020-04-11"
    },
    {
      "popularity": 1.136,
      "vote_count": 1,
      "video": false,
      "poster_path": "/jPrXEP2bVAWW6Wp1GleqZogiP9r.jpg",
      "id": 688827,
      "adult": false,
      "backdrop_path": null,
      "original_language": "en",
      "original_title": "Lime",
      "genre_ids": [
        18
      ],
      "title": "Lime",
      "vote_average": 10,
      "overview": "Set in the concrete jungle of Compton, CA in the early '00s, a young man who discovers how hard it is to live in his truth after experiencing the bitterness of the real world. He has a choice, to conform to societal norms, or...be the sweet amongst the sour.",
      "release_date": "2020-03-31"
    },
    {
      "popularity": 0.6,
      "id": 683793,
      "video": false,
      "vote_count": 1,
      "vote_average": 10,
      "title": "The Sharp Edge",
      "release_date": "2019-10-18",
      "original_language": "en",
      "original_title": "The Sharp Edge",
      "genre_ids": [
        18
      ],
      "backdrop_path": "/5cl6f9kqhgEcfPoyjxCDnqzuG7L.jpg",
      "adult": false,
      "overview": "A relationship between two college students is put to the test when one of them falls into depression.",
      "poster_path": "/oe48MvvePOZi7h6PtR9g2JLj52Q.jpg"
    },
    {
      "popularity": 1.4,
      "vote_count": 1,
      "video": false,
      "poster_path": "/5XLTX9y1ewG1zDNBJhOUijsNiiw.jpg",
      "id": 658980,
      "adult": false,
      "backdrop_path": null,
      "original_language": "en",
      "original_title": "Ophelia",
      "genre_ids": [
        35,
        80,
        53
      ],
      "title": "Ophelia",
      "vote_average": 10,
      "overview": "Set in the early 2000s, 'Ophelia' is a dark-comedy that follows a theater troupe about to premiere a new show based off the classic Shakespeare story 'Hamlet'. As the show gears up to debut, the lead actress is kidnapped, spiraling the shows director, Frank, and her best friend, Molly, to go into panic to come up with the ransom money to payback the kidnappers.",
      "release_date": "2019-05-23"
    },
    {
      "popularity": 1.4,
      "id": 658883,
      "video": false,
      "vote_count": 1,
      "vote_average": 10,
      "title": "Bad to the Jones",
      "release_date": "2011-10-10",
      "original_language": "en",
      "original_title": "Bad to the Jones",
      "genre_ids": [
        28,
        35,
        27
      ],
      "backdrop_path": "/mVjrTwq66VGwaM7Z6QTqEJTBwHK.jpg",
      "adult": false,
      "overview": "Bad to the Jones is a story about Craig and Tyrone Jones, two argumentative brothers on a quest to save their sister during a zombie apocalypse.",
      "poster_path": "/zneyDLEOyOwFoosg6iji2h1rYyq.jpg"
    },
    {
      "popularity": 1.4,
      "vote_count": 1,
      "video": false,
      "poster_path": "/w51BRQk4spMYzyjK1XSaqdHCvWU.jpg",
      "id": 652255,
      "adult": false,
      "backdrop_path": null,
      "original_language": "en",
      "original_title": "Projection",
      "genre_ids": [
        27
      ],
      "title": "Projection",
      "vote_average": 10,
      "overview": "Daniel works as a projectionist as a theater, while slowly losing his sanity.",
      "release_date": "2020-01-03"
    },
    {
      "popularity": 0.84,
      "id": 645838,
      "video": false,
      "vote_count": 1,
      "vote_average": 10,
      "title": "Maui Heat",
      "release_date": "1996-02-01",
      "original_language": "en",
      "original_title": "Maui Heat",
      "genre_ids": [
        10770
      ],
      "backdrop_path": null,
      "adult": false,
      "overview": "",
      "poster_path": "/33JSUkwVIQQXsdqgQIFNRdMVBqp.jpg"
    },
    {
      "popularity": 0.6,
      "id": 631303,
      "video": false,
      "vote_count": 4,
      "vote_average": 10,
      "title": "The Devil's Hour",
      "release_date": "2016-02-02",
      "original_language": "en",
      "original_title": "The Devil's Hour",
      "genre_ids": [
        27,
        18,
        53
      ],
      "backdrop_path": null,
      "adult": false,
      "overview": "A pastor and a teacher, two pillars of the small community of Triune, share a dark and unspeakable secret: the common enemy of an ancient demonic terror deigns to destroy one through the other during the Devil's hour.",
      "poster_path": null
    },
    {
      "popularity": 0.632,
      "vote_count": 1,
      "video": false,
      "poster_path": "/k6e6y3AnkMXG2cJY5QfownO2uch.jpg",
      "id": 625913,
      "adult": false,
      "backdrop_path": null,
      "original_language": "en",
      "original_title": "Dead Badge",
      "genre_ids": [
        28,
        80
      ],
      "title": "Dead Badge",
      "vote_average": 10,
      "overview": "After a cop dies, his shield goes back on duty.  They call it a \"dead badge\" - a way to honor a fallen officer. Badge #2424 used to belong to Many Torres - a cop who died of a heroin O.D.  Now it belongs to Dan Sampson... and it's haunting him.",
      "release_date": "1995-03-28"
    },
    {
      "popularity": 1.163,
      "vote_count": 1,
      "video": false,
      "poster_path": "/yMG5iNrwr3aB1Ke8iqPoZzj3jjo.jpg",
      "id": 616571,
      "adult": false,
      "backdrop_path": null,
      "original_language": "en",
      "original_title": "Forbidden Passions",
      "genre_ids": [],
      "title": "Forbidden Passions",
      "vote_average": 10,
      "overview": "Maisie Calloway, a beautiful ex-cop, bar owner and now private investigator, takes the case when one of her bar patrons is searching for his missing girlfriend, a call girl trying to leave her pimp.",
      "release_date": "2006-01-01"
    },
    {
      "popularity": 0.6,
      "id": 613260,
      "video": false,
      "vote_count": 1,
      "vote_average": 10,
      "title": "Overwhelm the Sky",
      "release_date": "2019-02-08",
      "original_language": "en",
      "original_title": "Overwhelm the Sky",
      "genre_ids": [
        18,
        53
      ],
      "backdrop_path": "/aNTYL0IdkGiAdEk8CVIjl3PSKWO.jpg",
      "adult": false,
      "overview": "Eddie Huntly, an east coast radio personality, moves to San Francisco to marry Thea, the sister of his best friend Neil, a successful entrepreneur. Shortly before Eddie's arrival, Neil is found murdered in what the police surmise was a simple mugging gone awry. As the sullen Eddie steps in as interim host of his old friend Dean's late-night talk-radio show, he obsessively makes regular visits to the forested spot where Neil's corpse was found. One such visit unleashes a chain of unpredictable events that sends Eddie snooping into the life of a sleepwalking drifter with a mysterious past.",
      "poster_path": "/lrN7O8tGDvtdurugW1B6T5EVM7.jpg"
    },
    {
      "popularity": 0.6,
      "id": 593913,
      "video": false,
      "vote_count": 1,
      "vote_average": 10,
      "title": "GCW Tournament Of Survival 3",
      "release_date": "2018-06-02",
      "original_language": "en",
      "original_title": "GCW Tournament Of Survival 3",
      "genre_ids": [
        28
      ],
      "backdrop_path": "/A5NlDUXECdU78NfmhjbKJNPfeME.jpg",
      "adult": false,
      "overview": "Name of the event:\tGCW Tournament Of Survival 3\r Date:\t02.06.2018\r Promotion:\tGame Changer Wrestling\r Type:\tEvent\r Location:\tSayreville, New Jersey, USA\r Arena:\tStarland Ballroom  Tournament Of Survival 3 First Round Match\r Nick Gage vs. Takayuki Ueki\r Tournament Of Survival 3 First Round Match\r Eric Ryan vs. Miedo Extremo\r Tournament Of Survival 3 First Round Match\r Markus Crane vs. SHLAK\r Tournament Of Survival 3 First Round Match\r Alex Colon vs. Ciclope\r Tournament Of Survival 3 Semi Final Match\r Markus Crane vs. Miedo Extremo\r Tournament Of Survival 3 Semi Final Match\r Ciclope vs. Nick Gage\r Singles Match\r Joey Janela vs. PCO\r Tournament Of Survival 3 Final Match\r Ciclope vs. Miedo Extremo",
      "poster_path": "/ptsBUFf6u29tmNwC92rOVrAIW4h.jpg"
    },
    {
      "popularity": 0.6,
      "id": 581628,
      "video": false,
      "vote_count": 1,
      "vote_average": 10,
      "title": "Ignore The Clock",
      "release_date": "2019-03-13",
      "original_language": "en",
      "original_title": "Ignore The Clock",
      "genre_ids": [
        80,
        35,
        18
      ],
      "backdrop_path": null,
      "adult": false,
      "overview": "A recovering ex-convict and a disgraced former detective meet up for a late dinner to discuss a potential business deal.",
      "poster_path": "/zxDchAYhDIvz1vqMTlzTuHwFpn5.jpg"
    },
    {
      "popularity": 2.072,
      "id": 576233,
      "video": false,
      "vote_count": 1,
      "vote_average": 10,
      "title": "Everything That Glitters",
      "release_date": "2018-12-27",
      "original_language": "en",
      "original_title": "Everything That Glitters",
      "genre_ids": [
        18
      ],
      "backdrop_path": "/lvtVIlj7ubWdhE4SSpFzoncdJ02.jpg",
      "adult": false,
      "overview": "Victoria Robinson seems to have a perfect life. But her unfaithful husband and a sexy younger man with dark motives will lead her into a dangerous game of cat and mouse where she’ll discover that the perfect life comes with a high cost.",
      "poster_path": "/tVnRv0wszMLPHBWzUpU4LYghNTt.jpg"
    }
  ]
}